digraph G
{
  edge [fontname="FreeSans.ttf",fontsize=10,labelfontname="FreeSans.ttf",labelfontsize=10];
  node [fontname="FreeSans.ttf",fontsize=10,shape=record];
  rankdir=LR;
  Node1 [label="df_df_2_ram",height=0.2,width=0.4,color="black", fillcolor="grey75", style="filled" fontcolor="black"];
  Node1 -> Node2 [color="midnightblue",fontsize=10,style="solid",fontname="FreeSans.ttf"];
  Node2 [label="df_read_close",height=0.2,width=0.4,color="black", fillcolor="white", style="filled",URL="$a00034.html#76d9114087dc496dcb6e7441abfbfc68",tooltip="This function unselects the current DF memory."];
  Node1 -> Node3 [color="midnightblue",fontsize=10,style="solid",fontname="FreeSans.ttf"];
  Node3 [label="df_read_open",height=0.2,width=0.4,color="black", fillcolor="white", style="filled",URL="$a00034.html#d4091a322e41042b846029ed3679d138",tooltip="This function opens a DF memory in read mode at a given sector address."];
  Node1 -> Node4 [color="midnightblue",fontsize=10,style="solid",fontname="FreeSans.ttf"];
  Node4 [label="df_read_sector_2_ram",height=0.2,width=0.4,color="black", fillcolor="white", style="filled",URL="$a00034.html#4cf6abce91d472c104171a6e9cf4ecf0",tooltip="This function read one DF sector and load it into a ram buffer."];
}
