digraph G
{
  edge [fontname="FreeSans.ttf",fontsize=10,labelfontname="FreeSans.ttf",labelfontsize=10];
  node [fontname="FreeSans.ttf",fontsize=10,shape=record];
  rankdir=LR;
  Node1 [label="df_host_write_sector",height=0.2,width=0.4,color="black", fillcolor="grey75", style="filled" fontcolor="black"];
  Node1 -> Node2 [color="midnightblue",fontsize=10,style="solid",fontname="FreeSans.ttf"];
  Node2 [label="df_write_open",height=0.2,width=0.4,color="black", fillcolor="white", style="filled",URL="$a00034.html#ff167c7f03438afd57e148a2d12ade41",tooltip="This function opens a DF memory in write mode at a given sector address."];
}
