digraph G
{
  edge [fontname="FreeSans.ttf",fontsize=10,labelfontname="FreeSans.ttf",labelfontsize=10];
  node [fontname="FreeSans.ttf",fontsize=10,shape=record];
  rankdir=LR;
  Node1 [label="get_cur_lun",height=0.2,width=0.4,color="black", fillcolor="grey75", style="filled" fontcolor="black"];
  Node1 -> Node2 [dir=back,color="midnightblue",fontsize=10,style="solid",fontname="FreeSans.ttf"];
  Node2 [label="usb_mass_storage_cbw",height=0.2,width=0.4,color="black", fillcolor="white", style="filled",URL="$a00050.html#8ad8d2f18d5af0ed75b541ab3ca9a7ff"];
  Node2 -> Node3 [dir=back,color="midnightblue",fontsize=10,style="solid",fontname="FreeSans.ttf"];
  Node3 [label="storage_task",height=0.2,width=0.4,color="black", fillcolor="white", style="filled",URL="$a00050.html#3d969aef2bd4c95a740f288f165d8087"];
}
