digraph G
{
  edge [fontname="FreeSans.ttf",fontsize=10,labelfontname="FreeSans.ttf",labelfontsize=10];
  node [fontname="FreeSans.ttf",fontsize=10,shape=record];
  rankdir=LR;
  Node1 [label="df_write_sector_from_ram",height=0.2,width=0.4,color="black", fillcolor="grey75", style="filled" fontcolor="black"];
  Node1 -> Node2 [dir=back,color="midnightblue",fontsize=10,style="solid",fontname="FreeSans.ttf"];
  Node2 [label="df_ram_2_df",height=0.2,width=0.4,color="black", fillcolor="white", style="filled",URL="$a00037.html#170b54a5ba834377c95219d5c20b1994",tooltip="This function performs a write operation of 1 sector to a given address from RAM..."];
}
