digraph G
{
  edge [fontname="FreeSans.ttf",fontsize=10,labelfontname="FreeSans.ttf",labelfontsize=10];
  node [fontname="FreeSans.ttf",fontsize=10,shape=record];
  rankdir=LR;
  Node1 [label="usb_set_interface",height=0.2,width=0.4,color="black", fillcolor="grey75", style="filled" fontcolor="black"];
  Node1 -> Node2 [dir=back,color="midnightblue",fontsize=10,style="solid",fontname="FreeSans.ttf"];
  Node2 [label="usb_process_request",height=0.2,width=0.4,color="black", fillcolor="white", style="filled",URL="$a00095.html#g3a56939c3d898bcbbc8208297dccfe93"];
}
