digraph G
{
  edge [fontname="FreeSans.ttf",fontsize=10,labelfontname="FreeSans.ttf",labelfontsize=10];
  node [fontname="FreeSans.ttf",fontsize=10,shape=record];
  rankdir=LR;
  Node1 [label="df_mem_init",height=0.2,width=0.4,color="black", fillcolor="grey75", style="filled" fontcolor="black"];
  Node1 -> Node2 [dir=back,color="midnightblue",fontsize=10,style="solid",fontname="FreeSans.ttf"];
  Node2 [label="df_write_10",height=0.2,width=0.4,color="black", fillcolor="white", style="filled",URL="$a00037.html#541e54148d86731ff7929a60c13a1117",tooltip="This function performs a write operation of n sectors to a given address from USB..."];
  Node1 -> Node3 [dir=back,color="midnightblue",fontsize=10,style="solid",fontname="FreeSans.ttf"];
  Node3 [label="storage_task_init",height=0.2,width=0.4,color="black", fillcolor="white", style="filled",URL="$a00050.html#da9115e5c98d0531e3c9d43c81819c7b"];
}
