digraph G
{
  edge [fontname="FreeSans.ttf",fontsize=10,labelfontname="FreeSans.ttf",labelfontsize=10];
  node [fontname="FreeSans.ttf",fontsize=10,shape=record];
  Node1 [label="conf_scheduler.h",height=0.2,width=0.4,color="black", fillcolor="grey75", style="filled" fontcolor="black"];
  Node1 -> Node2 [dir=back,color="midnightblue",fontsize=10,style="solid",fontname="FreeSans.ttf"];
  Node2 [label="config.h",height=0.2,width=0.4,color="black", fillcolor="white", style="filled",URL="$a00030.html"];
  Node2 -> Node3 [dir=back,color="midnightblue",fontsize=10,style="solid",fontname="FreeSans.ttf"];
  Node3 [label="main.c",height=0.2,width=0.4,color="black", fillcolor="white", style="filled",URL="$a00041.html"];
  Node2 -> Node4 [dir=back,color="midnightblue",fontsize=10,style="solid",fontname="FreeSans.ttf"];
  Node4 [label="storage_task.c",height=0.2,width=0.4,color="black", fillcolor="white", style="filled",URL="$a00050.html"];
  Node2 -> Node5 [dir=back,color="midnightblue",fontsize=10,style="solid",fontname="FreeSans.ttf"];
  Node5 [label="storage_task.h",height=0.2,width=0.4,color="black", fillcolor="white", style="filled",URL="$a00051.html"];
  Node5 -> Node4 [dir=back,color="midnightblue",fontsize=10,style="solid",fontname="FreeSans.ttf"];
  Node5 -> Node6 [dir=back,color="midnightblue",fontsize=10,style="solid",fontname="FreeSans.ttf"];
  Node6 [label="scsi_decoder.c",height=0.2,width=0.4,color="black", fillcolor="white", style="filled",URL="$a00047.html"];
  Node2 -> Node7 [dir=back,color="midnightblue",fontsize=10,style="solid",fontname="FreeSans.ttf"];
  Node7 [label="usb_descriptors.h",height=0.2,width=0.4,color="black", fillcolor="white", style="filled",URL="$a00055.html"];
  Node7 -> Node4 [dir=back,color="midnightblue",fontsize=10,style="solid",fontname="FreeSans.ttf"];
  Node7 -> Node8 [dir=back,color="midnightblue",fontsize=10,style="solid",fontname="FreeSans.ttf"];
  Node8 [label="usb_descriptors.c",height=0.2,width=0.4,color="black", fillcolor="white", style="filled",URL="$a00054.html"];
  Node7 -> Node9 [dir=back,color="midnightblue",fontsize=10,style="solid",fontname="FreeSans.ttf"];
  Node9 [label="usb_specific_request.c",height=0.2,width=0.4,color="black", fillcolor="white", style="filled",URL="$a00061.html"];
  Node7 -> Node10 [dir=back,color="midnightblue",fontsize=10,style="solid",fontname="FreeSans.ttf"];
  Node10 [label="usb_device_task.c",height=0.2,width=0.4,color="black", fillcolor="white", style="filled",URL="$a00056.html"];
  Node7 -> Node11 [dir=back,color="midnightblue",fontsize=10,style="solid",fontname="FreeSans.ttf"];
  Node11 [label="usb_standard_request.c",height=0.2,width=0.4,color="black", fillcolor="white", style="filled",URL="$a00063.html"];
  Node7 -> Node12 [dir=back,color="midnightblue",fontsize=10,style="solid",fontname="FreeSans.ttf"];
  Node12 [label="usb_standard_request.h",height=0.2,width=0.4,color="black", fillcolor="white", style="filled",URL="$a00064.html"];
  Node12 -> Node7 [dir=back,color="midnightblue",fontsize=10,style="solid",fontname="FreeSans.ttf"];
  Node12 -> Node4 [dir=back,color="midnightblue",fontsize=10,style="solid",fontname="FreeSans.ttf"];
  Node12 -> Node8 [dir=back,color="midnightblue",fontsize=10,style="solid",fontname="FreeSans.ttf"];
  Node12 -> Node9 [dir=back,color="midnightblue",fontsize=10,style="solid",fontname="FreeSans.ttf"];
  Node12 -> Node10 [dir=back,color="midnightblue",fontsize=10,style="solid",fontname="FreeSans.ttf"];
  Node12 -> Node11 [dir=back,color="midnightblue",fontsize=10,style="solid",fontname="FreeSans.ttf"];
  Node7 -> Node13 [dir=back,color="midnightblue",fontsize=10,style="solid",fontname="FreeSans.ttf"];
  Node13 [label="usb_task.c",height=0.2,width=0.4,color="black", fillcolor="white", style="filled",URL="$a00065.html"];
  Node2 -> Node14 [dir=back,color="midnightblue",fontsize=10,style="solid",fontname="FreeSans.ttf"];
  Node14 [label="usb_specific_request.h",height=0.2,width=0.4,color="black", fillcolor="white", style="filled",URL="$a00062.html"];
  Node14 -> Node4 [dir=back,color="midnightblue",fontsize=10,style="solid",fontname="FreeSans.ttf"];
  Node14 -> Node8 [dir=back,color="midnightblue",fontsize=10,style="solid",fontname="FreeSans.ttf"];
  Node14 -> Node9 [dir=back,color="midnightblue",fontsize=10,style="solid",fontname="FreeSans.ttf"];
  Node14 -> Node11 [dir=back,color="midnightblue",fontsize=10,style="solid",fontname="FreeSans.ttf"];
  Node2 -> Node8 [dir=back,color="midnightblue",fontsize=10,style="solid",fontname="FreeSans.ttf"];
  Node2 -> Node9 [dir=back,color="midnightblue",fontsize=10,style="solid",fontname="FreeSans.ttf"];
  Node2 -> Node15 [dir=back,color="midnightblue",fontsize=10,style="solid",fontname="FreeSans.ttf"];
  Node15 [label="usb_key.h",height=0.2,width=0.4,color="black", fillcolor="white", style="filled",URL="$a00060.html"];
  Node15 -> Node2 [dir=back,color="midnightblue",fontsize=10,style="solid",fontname="FreeSans.ttf"];
  Node2 -> Node16 [dir=back,color="midnightblue",fontsize=10,style="solid",fontname="FreeSans.ttf"];
  Node16 [label="flash_drv.h",height=0.2,width=0.4,color="black", fillcolor="white", style="filled",URL="$a00039.html"];
  Node16 -> Node8 [dir=back,color="midnightblue",fontsize=10,style="solid",fontname="FreeSans.ttf"];
  Node16 -> Node9 [dir=back,color="midnightblue",fontsize=10,style="solid",fontname="FreeSans.ttf"];
  Node16 -> Node11 [dir=back,color="midnightblue",fontsize=10,style="solid",fontname="FreeSans.ttf"];
  Node2 -> Node17 [dir=back,color="midnightblue",fontsize=10,style="solid",fontname="FreeSans.ttf"];
  Node17 [label="power_drv.c",height=0.2,width=0.4,color="black", fillcolor="white", style="filled",URL="$a00043.html"];
  Node2 -> Node18 [dir=back,color="midnightblue",fontsize=10,style="solid",fontname="FreeSans.ttf"];
  Node18 [label="usb_drv.c",height=0.2,width=0.4,color="black", fillcolor="white", style="filled",URL="$a00058.html"];
  Node2 -> Node19 [dir=back,color="midnightblue",fontsize=10,style="solid",fontname="FreeSans.ttf"];
  Node19 [label="df.c",height=0.2,width=0.4,color="black", fillcolor="white", style="filled",URL="$a00034.html"];
  Node2 -> Node20 [dir=back,color="midnightblue",fontsize=10,style="solid",fontname="FreeSans.ttf"];
  Node20 [label="df.h",height=0.2,width=0.4,color="black", fillcolor="white", style="filled",URL="$a00035.html"];
  Node20 -> Node19 [dir=back,color="midnightblue",fontsize=10,style="solid",fontname="FreeSans.ttf"];
  Node20 -> Node21 [dir=back,color="midnightblue",fontsize=10,style="solid",fontname="FreeSans.ttf"];
  Node21 [label="df_mem.c",height=0.2,width=0.4,color="black", fillcolor="white", style="filled",URL="$a00036.html"];
  Node2 -> Node21 [dir=back,color="midnightblue",fontsize=10,style="solid",fontname="FreeSans.ttf"];
  Node2 -> Node22 [dir=back,color="midnightblue",fontsize=10,style="solid",fontname="FreeSans.ttf"];
  Node22 [label="ctrl_access.c",height=0.2,width=0.4,color="black", fillcolor="white", style="filled",URL="$a00031.html"];
  Node2 -> Node6 [dir=back,color="midnightblue",fontsize=10,style="solid",fontname="FreeSans.ttf"];
  Node2 -> Node10 [dir=back,color="midnightblue",fontsize=10,style="solid",fontname="FreeSans.ttf"];
  Node2 -> Node11 [dir=back,color="midnightblue",fontsize=10,style="solid",fontname="FreeSans.ttf"];
  Node2 -> Node13 [dir=back,color="midnightblue",fontsize=10,style="solid",fontname="FreeSans.ttf"];
  Node2 -> Node23 [dir=back,color="midnightblue",fontsize=10,style="solid",fontname="FreeSans.ttf"];
  Node23 [label="spi_drv.h",height=0.2,width=0.4,color="black", fillcolor="white", style="filled",URL="$a00049.html"];
  Node23 -> Node19 [dir=back,color="midnightblue",fontsize=10,style="solid",fontname="FreeSans.ttf"];
  Node2 -> Node24 [dir=back,color="midnightblue",fontsize=10,style="solid",fontname="FreeSans.ttf"];
  Node24 [label="wdt_drv.c",height=0.2,width=0.4,color="black", fillcolor="white", style="filled",URL="$a00067.html"];
  Node2 -> Node25 [dir=back,color="midnightblue",fontsize=10,style="solid",fontname="FreeSans.ttf"];
  Node25 [label="scheduler.c",height=0.2,width=0.4,color="black", fillcolor="white", style="filled",URL="$a00045.html"];
  Node1 -> Node25 [dir=back,color="midnightblue",fontsize=10,style="solid",fontname="FreeSans.ttf"];
}
