digraph G
{
  edge [fontname="FreeSans.ttf",fontsize=10,labelfontname="FreeSans.ttf",labelfontsize=10];
  node [fontname="FreeSans.ttf",fontsize=10,shape=record];
  Node1 [label="ctrl_access.h",height=0.2,width=0.4,color="black", fillcolor="grey75", style="filled" fontcolor="black"];
  Node1 -> Node2 [dir=back,color="midnightblue",fontsize=10,style="solid",fontname="FreeSans.ttf"];
  Node2 [label="storage_task.c",height=0.2,width=0.4,color="black", fillcolor="white", style="filled",URL="$a00050.html"];
  Node1 -> Node3 [dir=back,color="midnightblue",fontsize=10,style="solid",fontname="FreeSans.ttf"];
  Node3 [label="usb_specific_request.c",height=0.2,width=0.4,color="black", fillcolor="white", style="filled",URL="$a00061.html"];
  Node1 -> Node4 [dir=back,color="midnightblue",fontsize=10,style="solid",fontname="FreeSans.ttf"];
  Node4 [label="ctrl_access.c",height=0.2,width=0.4,color="black", fillcolor="white", style="filled",URL="$a00031.html"];
  Node1 -> Node5 [dir=back,color="midnightblue",fontsize=10,style="solid",fontname="FreeSans.ttf"];
  Node5 [label="scsi_decoder.c",height=0.2,width=0.4,color="black", fillcolor="white", style="filled",URL="$a00047.html"];
}
