digraph G
{
  edge [fontname="FreeSans.ttf",fontsize=10,labelfontname="FreeSans.ttf",labelfontsize=10];
  node [fontname="FreeSans.ttf",fontsize=10,shape=record];
  Node1 [label="df.c",height=0.2,width=0.4,color="black", fillcolor="grey75", style="filled" fontcolor="black"];
  Node1 -> Node2 [color="midnightblue",fontsize=10,style="solid",fontname="FreeSans.ttf"];
  Node2 [label="config.h",height=0.2,width=0.4,color="black", fillcolor="white", style="filled",URL="$a00030.html"];
  Node2 -> Node3 [color="midnightblue",fontsize=10,style="solid",fontname="FreeSans.ttf"];
  Node3 [label="lib_mcu/compiler.h",height=0.2,width=0.4,color="black", fillcolor="white", style="filled",URL="$a00026.html"];
  Node2 -> Node4 [color="midnightblue",fontsize=10,style="solid",fontname="FreeSans.ttf"];
  Node4 [label="conf/conf_scheduler.h",height=0.2,width=0.4,color="black", fillcolor="white", style="filled",URL="$a00028.html"];
  Node2 -> Node5 [color="midnightblue",fontsize=10,style="solid",fontname="FreeSans.ttf"];
  Node5 [label="lib_board\\usb_key\\usb_key.h",height=0.2,width=0.4,color="black", fillcolor="white", style="filled",URL="$a00060.html"];
  Node5 -> Node2 [color="midnightblue",fontsize=10,style="solid",fontname="FreeSans.ttf"];
  Node1 -> Node6 [color="midnightblue",fontsize=10,style="solid",fontname="FreeSans.ttf"];
  Node6 [label="lib_mcu/usb/usb_drv.h",height=0.2,width=0.4,color="black", fillcolor="white", style="filled",URL="$a00059.html"];
  Node1 -> Node7 [color="midnightblue",fontsize=10,style="solid",fontname="FreeSans.ttf"];
  Node7 [label="lib_mcu/spi/spi_drv.h",height=0.2,width=0.4,color="black", fillcolor="white", style="filled",URL="$a00049.html"];
  Node7 -> Node2 [color="midnightblue",fontsize=10,style="solid",fontname="FreeSans.ttf"];
  Node1 -> Node8 [color="midnightblue",fontsize=10,style="solid",fontname="FreeSans.ttf"];
  Node8 [label="df.h",height=0.2,width=0.4,color="black", fillcolor="white", style="filled",URL="$a00035.html"];
  Node8 -> Node2 [color="midnightblue",fontsize=10,style="solid",fontname="FreeSans.ttf"];
}
