digraph G
{
  edge [fontname="FreeSans.ttf",fontsize=10,labelfontname="FreeSans.ttf",labelfontsize=10];
  node [fontname="FreeSans.ttf",fontsize=10,shape=record];
  Node1 [label="scheduler.h",height=0.2,width=0.4,color="black", fillcolor="grey75", style="filled" fontcolor="black"];
  Node1 -> Node2 [dir=back,color="midnightblue",fontsize=10,style="solid",fontname="FreeSans.ttf"];
  Node2 [label="main.c",height=0.2,width=0.4,color="black", fillcolor="white", style="filled",URL="$a00041.html"];
  Node1 -> Node3 [dir=back,color="midnightblue",fontsize=10,style="solid",fontname="FreeSans.ttf"];
  Node3 [label="scheduler.c",height=0.2,width=0.4,color="black", fillcolor="white", style="filled",URL="$a00045.html"];
}
